<?xml version="1.0" standalone="no"?>
<!DOCTYPE svg PUBLIC "-//W3C//DTD SVG 1.1//EN" "http://www.w3.org/Graphics/SVG/1.1/DTD/svg11.dtd">
<svg xmlns="http://www.w3.org/2000/svg">
<defs>
<font id="icofont" horiz-adv-x="1000" >
<font-face font-family="IcoFont" font-weight="400" font-style="Regular" units-per-em="1000" ascent="850" descent="-150" />
<missing-glyph horiz-adv-x="1000" />
<glyph glyph-name="navigation-menu" horiz-adv-x="1000" unicode="&#xefa2;" d="M63 628v-24c0-38 30-69 68-69h738c38 0 68 31 68 69v24c0 38-30 69-68 69h-738c-38 0-68-31-68-69z m68-359h738c38 0 68 31 68 69v24c0 38-30 69-68 69h-738c-38 0-68-31-68-69v-24c0-38 30-69 68-69z m0-266h738c38 0 68 30 68 68v25c0 38-30 68-68 68h-738c-38 0-68-30-68-68v-25c0-38 30-68 68-68z" />
<glyph glyph-name="archive" horiz-adv-x="1000" unicode="&#xeea5;" d="M129 460c-4 0-7 0-10 1v-447c0-29 24-53 52-53h658c29 0 52 24 52 53v447c-3-1-6-1-9-1l-743 0z m519-198h-296c-15 0-26 12-26 26v70c0 14 11 26 26 26h296c15 0 26-12 26-26v-70h1c0-14-12-26-27-26z m290 417c0 33-27 60-60 60h-755c-34 0-60-27-60-60v-121h56v-45h762v45h57l0 121z" />
<glyph glyph-name="tick-mark" horiz-adv-x="1000" unicode="&#xf00e;" d="M933 657c-243-223-432-530-490-678-1-4-6-8-11-8-1-1-1-1-2-1-4 0-8 1-10 4l-357 363c-3 3 105 99 110 95l196-154c76 90 264 293 525 452 5 0 43-57 43-57 2-5 0-12-4-16z" />
<glyph glyph-name="ui-message" horiz-adv-x="1000" unicode="&#xec67;" d="M1000 491v-24c0-100 0-201 0-302-1-90-64-157-154-157-230-1-460-1-690 0-92 0-156 66-156 157 0 101 0 202 0 302v25c45-19 86-36 128-54 103-45 205-92 309-135 42-18 88-17 130 2 95 40 189 82 283 123 43 18 86 37 129 56 6 2 12 4 21 7z m-501 201c138 0 277 1 415 0 55 0 86-32 86-86 0-14-5-19-17-24-120-52-239-104-359-156-27-12-54-23-80-35-31-15-62-12-92 1-145 63-291 127-436 191-7 3-15 14-15 22-3 54 29 87 84 87 138 1 276 0 414 0z" />
<glyph glyph-name="ui-user" horiz-adv-x="1000" unicode="&#xec8e;" d="M859 47c-230 139-469 144-700 11-82-47-134-109-159-176h1000c-22 64-69 122-141 165z m-359 771c163 0 294-130 295-292 1-162-131-295-293-297-164-1-295 131-296 296 0 163 130 293 294 293z" />
<glyph glyph-name="tooth" horiz-adv-x="1000" unicode="&#xec3c;" d="M882 686c-2 39-24 90-43 113-20 23-57 45-83 49-26 4-78 3-117-3l-139-19-139 19c-40 6-92 7-118 3-26-4-62-26-82-49-20-23-42-74-44-113-4-70 1-181 51-282 0 0 36-72 36-186 0-84 32-265 73-345 18-35 73-28 84 10 38 133 66 468 139 467 73 1 100-334 139-467 11-38 65-45 83-10 42 80 74 261 74 345 0 114 35 186 35 186 50 101 55 212 51 282z" />
</font>
</defs>
</svg>